{
    "databases": [
        {
            "name": "database",
            "ibd_directory": "backups/database"
        },
        {
            "name": "database-2",
            "ibd_directory": "backups/database-2",
            "mysql_installation_directory": "database@002d2"
        }
    ],
    "mysql": {
        "connection": {
            "host": "localhost",
            "port": 3306,
            "user": "root",
            "password": "password",
            "charset": "utf8",
            "connect_timeout": 30,
            "read_timeout": 30
        },
        "installation": {
            "directory": "/var/lib/mysql",
            "user": "mysql",
            "group": "mysql"
        }
    }
}
